This is a title
…
new_penguins <- palmerpenguins::penguins %>%
  drop_na() %>%
  mutate(bill_length_mean1 = mean(bill_length_mm)) %>%
  group_by(species, island) %>%
  mutate(bill_length_mean2 = mean(bill_length_mm)) %>%
  ungroup() %>%
  select(species, island, contains("bill_length"))

new_penguins
```

```
## # A tibble: 333 x 5
##    species island    bill_length_mm bill_length_mean1 bill_length_mean2
##    <fct>   <fct>              <dbl>             <dbl>             <dbl>
##  1 Adelie  Torgersen           39.1              44.0              39.0
##  2 Adelie  Torgersen           39.5              44.0              39.0
##  3 Adelie  Torgersen           40.3              44.0              39.0
##  4 Adelie  Torgersen           36.7              44.0              39.0
##  5 Adelie  Torgersen           39.3              44.0              39.0
##  6 Adelie  Torgersen           38.9              44.0              39.0
##  7 Adelie  Torgersen           39.2              44.0              39.0
##  8 Adelie  Torgersen           41.1              44.0              39.0
##  9 Adelie  Torgersen           38.6              44.0              39.0
## 10 Adelie  Torgersen           34.6              44.0              39.0
## # ... with 323 more rows
```
